com\koadweb\javafpdf\Format.class
controlador\util\JsfUtil.class
entidades\Materia.class
controlador\InventarioController.class
entidades\Libro.class
control\FiltroTablaLibro.class
pdf\FichaPrestamo.class
com\koadweb\javafpdf\FPDF$1.class
controlador\EditorialController.class
entidades\Estudiante.class
com\koadweb\javafpdf\Coordinate.class
com\koadweb\javafpdf\ImageInfo.class
controlador\Filtro.class
controlador\LibroController$LibroControllerConverter.class
com\mycompany\cecyte25\JAXRSConfiguration.class
controlador\util\PaginationHelper.class
entidades\Autor.class
entidades\Lector.class
pdf\InventarioAutoresPDF.class
entidades\Usuarios.class
controlador\AutorController$AutorControllerConverter.class
graficas\Graficos.class
com\koadweb\javafpdf\DrawMode.class
controlador\PrestamoController$PrestamoControllerConverter.class
controlador\MateriaController.class
controlador\SolicitudController.class
com\koadweb\javafpdf\Orientation.class
pdf\InventarioEditorialPDF.class
com\koadweb\javafpdf\Layout.class
accesoDatos\EditorialFacade.class
com\koadweb\javafpdf\LineStyle$Cap.class
control\Buscar.class
com\koadweb\javafpdf\Zoom.class
controlador\MateriaController$MateriaControllerConverter.class
control\Logueo.class
com\koadweb\javafpdf\Position.class
com\koadweb\javafpdf\FPDF.class
graficas\Graficos$1.class
controlador\DocenteController.class
control\Apartado.class
controlador\LectorController$LectorControllerConverter.class
controlador\LibroController$1.class
control\SessionUtils.class
accesoDatos\UsuariosFacade.class
controlador\EditorialController$EditorialControllerConverter.class
control\EmailJSFManagedBeanS.class
controlador\EstudianteController$EstudianteControllerConverter.class
accesoDatos\DocenteFacade.class
control\MailControlador.class
controlador\DocenteController$DocenteControllerConverter.class
controlador\LibroController.class
com\koadweb\javafpdf\Borders.class
com\koadweb\javafpdf\FontStyle.class
controlador\SolicitudController$1.class
com\koadweb\javafpdf\Color.class
com\koadweb\javafpdf\ImageInfo$ColorSpace.class
pdf\PDF.class
accesoDatos\LibroFacade.class
com\koadweb\javafpdf\Alignment.class
controlador\AutorController$1.class
control\EmailJSFManagedBeanSoporte.class
com\koadweb\javafpdf\NotImplementedException.class
controlador\UsuariosController$UsuariosControllerConverter.class
entidades\Lectores.class
control\Dato.class
com\koadweb\javafpdf\LineStyle$Join.class
com\koadweb\javafpdf\Font.class
entidades\Editorial.class
controlador\UsuariosController$1.class
controlador\EstudianteController.class
control\Configuracion.class
pdf\InventarioPDF.class
com\koadweb\javafpdf\ImageType.class
com\koadweb\javafpdf\LineStyle.class
com\koadweb\javafpdf\ScaleMode.class
controlador\LectorController$1.class
controlador\MateriaController$1.class
com\koadweb\javafpdf\JpegReader.class
controlador\EstudianteController$1.class
accesoDatos\SolicitudFacade.class
com\koadweb\javafpdf\PdfMultiCellTable.class
accesoDatos\EstudianteFacade.class
controlador\AutorController.class
control\FPrestamo.class
control\GraficasControl.class
controlador\UsuariosController.class
com\koadweb\javafpdf\Font$Type.class
controlador\EditorialController$1.class
archivos\InventarioCSV.class
control\EmailSolicitud.class
control\PanelView.class
accesoDatos\PrestamoFacade.class
entidades\Docente.class
control\LectoresSB.class
controlador\SolicitudController$SolicitudControllerConverter.class
com\koadweb\javafpdf\util\Compressor.class
controlador\PrestamoController$1.class
accesoDatos\LectorFacade.class
controlador\PrestamoController.class
controlador\LectorController.class
accesoDatos\AutorFacade.class
controlador\DocenteController$1.class
accesoDatos\MateriaFacade.class
com\koadweb\javafpdf\PDFCreationError.class
com\mycompany\cecyte25\resources\JavaEE8Resource.class
com\koadweb\javafpdf\Charwidths.class
accesoDatos\AbstractFacade.class
entidades\Prestamo.class
com\koadweb\javafpdf\PDFCreationState.class
entidades\Solicitud.class
